{
  "profiles": {
    "Electron.NET App": {
      "commandName": "Executable",
      "executablePath": "electronize",
      "commandLineArgs": "start",
      "workingDirectory": "."
    },
    "FrameDataCreator": {
      "commandName": "Project",
      "launchBrowser": true,
      "environmentVariables": {
        "ASPNETCORE_ENVIRONMENT": "Development"
      },
      "dotnetRunMessages": true,
      "applicationUrl": "https://localhost:7226;http://localhost:5265"
    },
    "IIS Express": {
      "commandName": "IISExpress",
      "launchBrowser": true,
      "environmentVariables": {
        "ASPNETCORE_ENVIRONMENT": "Development"
      }
    }
  },
  "iisSettings": {
    "windowsAuthentication": false,
    "anonymousAuthentication": true,
    "iisExpress": {
      "applicationUrl": "http://localhost:60863",
      "sslPort": 44311
    }
  }
}